<svg width="20" height="20" viewBox="0 0 20 20" fill="none" xmlns="http://www.w3.org/2000/svg">
<path d="M9.35417 0C9.77083 0 10.1875 0 10.6042 0C10.6615 0.0104167 10.7187 0.0260417 10.776 0.03125C11.1823 0.0885417 11.5885 0.114583 11.9896 0.197917C14.5156 0.713542 16.5781 1.98958 18.0729 4.09375C19.9688 6.76562 20.474 9.73958 19.5417 12.8542C18.3802 16.7448 15.6979 19.0625 11.7188 19.849C11.349 19.9219 10.974 19.9531 10.6042 20C10.1875 20 9.77083 20 9.35417 20C9.31771 19.9896 9.28125 19.9792 9.24479 19.9688C8.65104 19.875 8.04167 19.8281 7.46354 19.6771C3.59896 18.6875 0.822917 15.6615 0.151042 11.7344C0.0885417 11.3698 0.046875 10.9948 0 10.625C0 10.1979 0 9.76562 0 9.33333C0.0104167 9.28125 0.0260417 9.23438 0.03125 9.18229C0.0989583 8.72396 0.140625 8.26562 0.234375 7.8125C1.03646 3.89583 4.26042 0.791667 8.20312 0.15625C8.58333 0.09375 8.97396 0.0520833 9.35417 0ZM9.97917 1.5625C5.26562 1.5625 1.5625 5.27083 1.55729 10C1.55729 14.724 5.26042 18.4375 9.97917 18.4375C14.6979 18.4375 18.401 14.7292 18.401 10C18.401 5.27604 14.6979 1.5625 9.97917 1.5625Z" fill="#ED138D"/>
<path d="M9.54688 10.7656C7.39583 10.4792 5.96875 8.65104 6.08854 6.63021C6.20833 4.64062 7.875 3.03125 9.83333 2.97396C11.8958 2.91667 13.5677 4.40625 13.8437 6.33333C14.1406 8.41146 12.7083 10.4688 10.4219 10.7917C10.6458 10.8281 10.875 10.8542 11.099 10.9062C12.9479 11.3333 14.2552 12.4167 15.0156 14.1615C15.2292 14.6562 14.9688 15.151 14.4635 15.2656C14.1042 15.3438 13.7552 15.1562 13.5885 14.776C13.3281 14.1771 12.9583 13.6562 12.4531 13.2396C10.4896 11.6198 7.48437 12.3177 6.44271 14.6406C6.32812 14.8958 6.20312 15.1354 5.91667 15.2344C5.60417 15.3438 5.32292 15.2812 5.09375 15.0469C4.85417 14.8073 4.80729 14.5104 4.93229 14.1979C5.20312 13.5208 5.59896 12.9167 6.11979 12.4062C7.03125 11.5 8.125 10.9687 9.40625 10.8281C9.4375 10.8229 9.46875 10.8177 9.5 10.8125C9.51042 10.7969 9.51562 10.7865 9.54688 10.7656ZM9.97917 9.21875C11.2656 9.21875 12.3229 8.15625 12.3177 6.86979C12.3177 5.58854 11.2656 4.53646 9.98958 4.53125C8.70312 4.52604 7.64062 5.57812 7.64062 6.86979C7.64062 8.15625 8.69271 9.21875 9.97917 9.21875Z" fill="#ED138D"/>
</svg>
